…
```r
prof_salary
```

```
## # A tibble: 397 x 7
##       X1 rank      discipline yrs.since.phd yrs.service sex    salary
##    <dbl> <chr>     <chr>              <dbl>       <dbl> <chr>   <dbl>
##  1     1 Prof      B                     19          18 Male   139750
##  2     2 Prof      B                     20          16 Male   173200
##  3     3 AsstProf  B                      4           3 Male    79750
##  4     4 Prof      B                     45          39 Male   115000
##  5     5 Prof      B                     40          41 Male   141500
##  6     6 AssocProf B                      6           6 Male    97000
##  7     7 Prof      B                     30          23 Male   175000
##  8     8 Prof      B                     45          45 Male   147765
##  9     9 Prof      B                     21          20 Male   119250
## 10    10 Prof      B                     18          18 Female 129000
## # … with 387 more rows
```
…
```r
prof_salary_tidy <-prof_salary %>% 
  dplyr::rename(
    Participants = X1,
    Rank = rank,
    Discipline = discipline,
    Yrs_since_PhD = yrs.since.phd,
    Yrs_service = yrs.service,
    Sex = sex,
    Salary = salary)
prof_salary_tidy
```

```
## # A tibble: 397 x 7
##    Participants Rank      Discipline Yrs_since_PhD Yrs_service Sex   Salary
##           <dbl> <chr>     <chr>              <dbl>       <dbl> <chr>  <dbl>
##  1            1 Prof      B                     19          18 Male  139750
##  2            2 Prof      B                     20          16 Male  173200
##  3            3 AsstProf  B                      4           3 Male   79750
##  4            4 Prof      B                     45          39 Male  115000
##  5            5 Prof      B                     40          41 Male  141500
##  6            6 AssocProf B                      6           6 Male   97000
##  7            7 Prof      B                     30          23 Male  175000
##  8            8 Prof      B                     45          45 Male  147765
##  9            9 Prof      B                     21          20 Male  119250
## 10           10 Prof      B                     18          18 Fema… 129000
## # … with 387 more rows
```


```r
prof_salary_tidy
```

```
## # A tibble: 397 x 7
##    Participants Rank      Discipline Yrs_since_PhD Yrs_service Sex   Salary
##           <dbl> <chr>     <chr>              <dbl>       <dbl> <chr>  <dbl>
##  1            1 Prof      B                     19          18 Male  139750
##  2            2 Prof      B                     20          16 Male  173200
##  3            3 AsstProf  B                      4           3 Male   79750
##  4            4 Prof      B                     45          39 Male  115000
##  5            5 Prof      B                     40          41 Male  141500
##  6            6 AssocProf B                      6           6 Male   97000
##  7            7 Prof      B                     30          23 Male  175000
##  8            8 Prof      B                     45          45 Male  147765
##  9            9 Prof      B                     21          20 Male  119250
## 10           10 Prof      B                     18          18 Fema… 129000
## # … with 387 more rows
```
…
