…
##QUESTIONS?
1. Who makes the most money?
2. How does salary differ by ranks?
3. Does salary differ by gender?
4. What is discipline?
5. Does the amount of time you spent on the job affect your income?

<img src="profledford.jpg" width="30%" style="display: block; margin: auto;" />


##MAKE TIDY DATA

```
## # A tibble: 397 x 7
##    Participants Rank      Discipline Yrs_since_PhD Yrs_service Sex   Salary
##           <dbl> <chr>     <chr>              <dbl>       <dbl> <chr>  <dbl>
##  1            1 Prof      B                     19          18 Male  139750
##  2            2 Prof      B                     20          16 Male  173200
##  3            3 AsstProf  B                      4           3 Male   79750
##  4            4 Prof      B                     45          39 Male  115000
##  5            5 Prof      B                     40          41 Male  141500
##  6            6 AssocProf B                      6           6 Male   97000
##  7            7 Prof      B                     30          23 Male  175000
##  8            8 Prof      B                     45          45 Male  147765
##  9            9 Prof      B                     21          20 Male  119250
## 10           10 Prof      B                     18          18 Fema… 129000
## # … with 387 more rows
```
…
